{
    "type": "application",
    "source-directories": [
        "src"
    ],
    "elm-version": "0.19.1",
    "dependencies": {
        "direct": {
            "MartinSStewart/elm-audio": "3.0.2",
            "elm/browser": "1.0.2",
            "elm/core": "1.0.5",
            "elm/html": "1.0.0",
            "elm/json": "1.1.3",
            "elm-explorations/linear-algebra": "1.0.3",
            "elm-explorations/webgl": "1.1.1",
            "mgold/elm-nonempty-list": "4.1.0"
        },
        "indirect": {
            "elm/random": "1.0.0",
            "elm/time": "1.0.0",
            "elm/url": "1.0.0",
            "elm/virtual-dom": "1.0.2",
            "ianmackenzie/elm-units": "2.6.0"
        }
    },
    "test-dependencies": {
        "direct": {},
        "indirect": {}
    }
}
